//------------------------------------------------------------------

int funcao_4( )
{
  return 1; 
}

//------------------------------------------------------------------

int funcao_4_1( )
{
  return 1; 
}

//------------------------------------------------------------------

int funcao_4_2( )
{
  return 1; 
}

//------------------------------------------------------------------

int funcao_4_3( )
{
  return 1; 
}

//------------------------------------------------------------------
