int funcao_1( )
{
  return 1; 
}

//------------------------------------------------------------------------------

void funcao_1_0( )
{
}

//------------------------------------------------------------------------------

